Value = 00865E70 "abnormalCamera"
Addr = 007617D0
Value = 00869160 "abnormalMoveAnim"
Addr = 00752FD8
Value = 00864758 "ArenaPortal"
Addr = 00766350
Value = 00866470 "AutoTargetParameter"
Addr = 0075EEE0
Value = 00867794 "BattleMessage"
Addr = 00757830
Value = 0086A568 "BossNpc"
Addr = 0074CA28
Value = 007ACD6C "campfire"
Addr = 0075DD28
Value = 00867474 "cave"
Addr = 00757CC0
Value = 00864624 "chat-channel-option"
Addr = 00766520
Value = 0086A0B8 "cinematic"
Addr = 0074EBC8
Value = 00863DD8 "commonAnim"
Addr = 007673F8
Value = 00867A38 "Craft"
Addr = 007560E8
Value = 00864058 "craft-recipe"
Addr = 00767300
Value = 00863844 "craft-recipe-step"
Addr = 007687E0
Value = 00866C84 "CreatureAppearance"
Addr = 0075ADE0
Value = 0086397C "CustomizingDesignerPreset"
Addr = 00768100
Value = 008667EC "CustomizingDetailIcon"
Addr = 0075DA68
Value = 00866FBC "CustomizingDetailSlider"
Addr = 00758D80
Value = 0086660C "CustomizingPreset"
Addr = 0075E648
Value = 008663A0 "CustomizingPreview"
Addr = 0075F5E0
Value = 008684CC "CustomizingUIMatchParam"
Addr = 007546F0
Value = 008615D8 "dieAnim"
Addr = 0076CA88
Value = 0085B7B4 "discovery-area"
Addr = 007782A8
Value = 00855040 "district"
Addr = 0075E3A0
Value = 00855018 "dungeon"
Addr = 00754520
Value = 007B9FC0 "effect"
Addr = 007763E0
Value = 008649F8 "envResponse"
Addr = 00765948
Value = 00851064 "equip-gem-piece"
Addr = 00759108
Value = 00858D64 "event-skill"
Addr = 0075DF10
Value = 00863888 "exhaustionAnim"
Addr = 00768610
Value = 007E9368 "expand-inventory"
Addr = 00768518
Value = 007C0BC0 "faction"
Addr = 007780F0
Value = 00854D30 "faction-level"
Addr = 007654A0
Value = 00843008 "fielditem"
Addr = 0076E0D0
Value = 00866588 "FielditemDrop"
Addr = 0075EA78
Value = 008669EC "field-item-move-anim"
Addr = 0075BD48
Value = 00854D9C "filter"
Addr = 00753E98
Value = 00850CDC "game-message"
Addr = 0078B0D8
Value = 00869970 "game-tip"
Addr = 00751D60
Value = 00869E04 "GatherSource"
Addr = 0074FB28
Value = 00865F80 "GoodsIcon"
Addr = 00760E18
Value = 00866898 "guildlevel"
Addr = 0075D7C0
Value = 00866418 "IconTexture"
Addr = 0075F128
Value = 00854868 "indicator-idle"
Addr = 00751750
Value = 00854888 "indicator-social"
Addr = 007576C0
Value = 0083CB78 "item"
Addr = 0078ABC0
Value = 00866948 "ItemPouchMesh"
Addr = 0075D560
Value = 00869B64 "ItemSound"
Addr = 00751078
Value = 007A3DF8 "job"
Addr = 0077EA98
Value = 00862E98 "jobskillset"
Addr = 00769DB8
Value = 00842FC4 "key-cap"
Addr = 0076E9B0
Value = 00842FD4 "key-command"
Addr = 0078B320
Value = 007A3DEC "level"
Addr = 00760D20
Value = 0086791C "linkMoveAnim"
Addr = 00757220
Value = 00866F0C "lobby-pc"
Addr = 0075A510
Value = 00842F84 "map-area"
Addr = 0077DCC0
Value = 00842F74 "mapinfo"
Addr = 00779C58
Value = 00864A2C "mapoverlay"
Addr = 007657D8
Value = 007CD9A8 "mapunit"
Addr = 007875B8
Value = 00861284 "moveAnim"
Addr = 00760AD8
Value = 00869B78 "npcCombatMoveAnim"
Addr = 00750DA0
Value = 00843080 "npc"
Addr = 00781980
Value = 00866F20 "npcIndicatorMoveAnim"
Addr = 0075A010
Value = 0086366C "npcMoveAnim"
Addr = 00769B70
Value = 008666FC "npcResponse"
Addr = 0075E248
Value = 00842F54 "npctalkmessage"
Addr = 00776D80
Value = 008645B0 "partymatch"
Addr = 00766678
Value = 00864AAC "passive-effect-move-anim"
Addr = 00765178
Value = 00864A90 "pc-appearance"
Addr = 00765348
Value = 00863D58 "pc-cam-dist"
Addr = 00767808
Value = 0083CB1C "pc"
Addr = 0075CFE0
Value = 00866CAC "pc-race-sex-job"
Addr = 0075A7D8
Value = 0086A480 "pc-voice"
Addr = 0074CEA0
Value = 00867010 "pc-voice-set"
Addr = 00758B38
Value = 00861630 "petition-faq-list"
Addr = 0076C990
Value = 00864F10 "phantomSword"
Addr = 00763DF8
Value = 008670C4 "poseTransit"
Addr = 007589C8
Value = 00862DBC "QuestReward"
Addr = 0076C760
Value = 00842F48 "race"
Addr = 00781C40
Value = 00854B1C "reward"
Addr = 007585B0
Value = 00852E10 "set-item"
Addr = 00761E50
Value = 00860EA8 "skillAcquireCondition"
Addr = 0076E840
Value = 00869544 "skillAttributeRule"
Addr = 00751F30
Value = 008600A8 "SkillCastCondition"
Addr = 0076FC50
Value = 00843114 "skill-combo-2"
Addr = 0076ECE8
Value = 0086A104 "skill-combo"
Addr = 0074EA58
Value = 00868E58 "skillcontext"
Addr = 00754338
Value = 007A3E00 "skill"
Addr = 0077DBA0
Value = 00869BBC "skill-inheritance"
Addr = 0074FDD8
Value = 0086848C "skillshow2"
Addr = 00755CD0
Value = 00861598 "skill-train"
Addr = 0076CBE0
Value = 00866D14 "skillVariation"
Addr = 0075A680
Value = 0084C2D0 "social"
Addr = 0075FA98
Value = 00842FB4 "stance"
Addr = 007795C0
Value = 008679C4 "StanceTransit"
Addr = 007562B8
Value = 0086459C "standIdle"
Addr = 00766D70
Value = 00867438 "StateSocial"
Addr = 00758240
Value = 00842F20 "static-chat-channel"
Addr = 00779D98
Value = 00856C38 "store-by-item"
Addr = 00755EA0
Value = 007C0E90 "store"
Addr = 0074F670
Value = 00864B90 "summoned-appearance"
Addr = 007640D0
Value = 0086A040 "SummonedBeautyShop"
Addr = 0074ED20
Value = 007A5CB0 "summoned"
Addr = 00761408
Value = 00869A40 "SummonedDesignerPreset"
Addr = 00751410
Value = 00865A40 "summonedLevel"
Addr = 007635B0
Value = 0086A11C "SummonedMoveAnim"
Addr = 0074E748
Value = 00869984 "SummonedPreset"
Addr = 00751A10
Value = 00867450 "SummonedStandIdle"
Addr = 00757FF8
Value = 0083ECE8 "survey"
Addr = 00765E60
Value = 008637C0 "TalkSocial"
Addr = 00768C68
Value = 00842F00 "teleport"
Addr = 007786D0
Value = 00863A6C "Terrain"
Addr = 00767EB8
Value = 0084D104 "text"
Addr = 0074E888
Value = 0082B968 "Title"
Addr = 0076FE98
Value = 00867390 "user-command"
Addr = 007584D0
Value = 008430B8 "virtual-item"
Addr = 0077DF68
Value = 008647BC "weapon-gem-effect"
Addr = 00766090
Value = 008674FC "ZoneArea"
Addr = 00757B68
Value = 008670DC "ZoneBaseCamp"
Addr = 00758780
Value = 00866F58 "ZoneCampfire"
Addr = 00758F50
Value = 008694D0 "ZoneConvoy"
Addr = 00752088
Value = 00842FEC "zone"
Addr = 00782680
Value = 0085BE98 "ZoneEnv"
Addr = 00777E90
Value = 00869A1C "ZoneGatherSource"
Addr = 007515E0
Value = 008669BC "ZonePathway"
Addr = 0075D2B8
Value = 00863948 "ZonePcSpawn"
Addr = 00768348
Value = 0086A494 "ZoneRespawn"
Addr = 0074CC58
Value = 00869BE0 "ZoneTeleportPosition"
Addr = 0074FCE0
Value = 00864B38 "ZoneTeleportSwitch"
Addr = 00764300
